{
    "@context": [
        "https://zchandikaz.gitlab.io/test-pages/context/employee.v2.jsonld",
        "https://zchandikaz.gitlab.io/test-pages/context/loyalty.v2.jsonld",
        "https://zchandikaz.gitlab.io/test-pages/context/loyalty-tier.jsonld",
        "https://zchandikaz.gitlab.io/test-pages/context/order.jsonld"
    ]
}