{
    "@context": {
        "id": "@id",
        "type": "@type",
        "ex": "https://example.org/examples#",
        "schema": "http://schema.org/",
        "PersonCredential": {
            "@id": "ex:PersonCredential",
            "@context": {
                "id": "@id",
                "type": "@type",
                "name": "http://schema.org/name",
                "description": "http://schema.org/description"
            }
        },
        "Person": {
            "@id": "ex:Person",
            "@context": {
                "@protected": true,
                "id": "@id",
                "type": "@type",
                "firstName": "schema:givenName",
                "lastName": "schema:familyName",
                "emailAddress": {
                    "@id": "schema:email",
                    "@type": "@id"
                }
            }
        }
    }
}